Reduce the Dimensionality of Embeddings — reduce_dimensionality • embedplyr
…
library(tibble)
glove_tbl <- as_tibble(glove_twitter_25d, rownames = "token")
glove_tbl_2d <- glove_tbl |> reduce_dimensionality(dim_1:dim_25, 2)
glove_tbl_2d
#> # A tibble: 11,925 × 3
#>    token   PC1      PC2
#>  * <chr> <dbl>    <dbl>
#>  1 the   -3.51  0.926  
#>  2 of    -2.90  1.29   
#>  3 and   -3.35  1.15   
#>  4 to    -3.64  0.773  
#>  5 a     -3.77 -1.05   
#>  6 in    -3.16  0.370  
#>  7 for   -3.09  0.831  
#>  8 is    -3.52  0.987  
#>  9 on    -3.36  0.00238
#> 10 that  -3.79  1.92   
#> # ℹ 11,915 more rows
…
